…
{% highlight r %}
data(un)
dplyr::mutate(un, text = substr(text, 1, 45))
{% endhighlight %}



{% highlight text %}
## # A tibble: 30 x 2
##       doc_id                                          text
##       <fctr>                                         <chr>
##  1 article01 All human beings are born free and equal in d
##  2 article02 Everyone is entitled to all the rights and fr
##  3 article03 Everyone has the right to life, liberty and s
##  4 article04 No one shall be held in slavery or servitude;
##  5 article05 No one shall be subjected to torture or to cr
##  6 article06 Everyone has the right to recognition everywh
##  7 article07 All are equal before the law and are entitled
##  8 article08 Everyone has the right to an effective remedy
##  9 article09 No one shall be subjected to arbitrary arrest
## 10 article10 Everyone is entitled in full equality to a fa
## # ... with 20 more rows
…
